[
    {
      "_id": "_cmzi22oqw",
      "date": "13/01/2021 12:33:02",
      "slug": "markdown-syntax",
      "email": "dragonshakeel083@gmail.com",
      "username": "shakeel ahmed",
      "comment": "testing"
    },
    {
      "_id": "_0z17u278n",
      "date": "13/01/2021 14:50:03",
      "slug": "document-6",
      "email": "comment@one.com",
      "username": "comment one",
      "comment": "testing comment one on slug document-6"
    },
    {
      "_id": "_qnu0ld1j4",
      "date": "13/01/2021 14:51:01",
      "slug": "document-6",
      "email": "comment@two.com",
      "username": "comment two",
      "comment": "testing comment two on slug document-6"
    },
    {
      "_id": "_tm0ewgzqs",
      "date": "13/01/2021 14:51:45",
      "slug": "document-6",
      "email": "comment@three.com",
      "username": "comment three",
      "comment": "testing comment three on slug document-6"
    },
    {
      "_id": "_3z175z0yf",
      "date": "13/01/2021 14:52:32",
      "slug": "welcome",
      "email": "comment@four.com",
      "username": "comment four",
      "comment": "testing comment four on slug welcome"
    },
    {
      "_id": "_735xs1yi1",
      "date": "13/01/2021 14:53:08",
      "slug": "welcome",
      "email": "comment@five.com",
      "username": "comment five",
      "comment": "testing comment five on slug welcome"
    },
    {
      "_id": "_6ztiilwni",
      "date": "13/01/2021 14:53:56",
      "slug": "covid",
      "email": "comment@seven.com",
      "username": "comment seven",
      "comment": "testing comment five on slug covid"
    },
    {
      "_id": "_lxmetxfvc",
      "date": "13/01/2021 16:50:52",
      "slug": "document-6",
      "email": "comment@eight.com",
      "username": "comment eight",
      "comment": "testing for slug document-6"
    },
    {
      "_id": "_bu0hsk4bn",
      "date": "15/01/2021 09:20:04",
      "slug": "document-6",
      "email": "shake@bake.com",
      "username": "shake n bake",
      "comment": "testing comments"
    }
  ]